…
    Rows: 2845 Columns: 1

    ── Column specification ────────────────────────────────────────────────────────
    Delimiter: ","
    chr (1): <!DOCTYPE html>

    ℹ Use `spec()` to retrieve the full column specification for this data.
    ℹ Specify the column types or set `show_col_types = FALSE` to quiet this message.

``` r
header
```

    # A tibble: 2,845 × 1
       `<!DOCTYPE html>`                                                            
       <chr>                                                                        
     1 "<!-- saved from url=(0076)https://github.com/Sofikoshka7/threat_technologie…
     2 "<html lang=\"en\" data-color-mode=\"auto\" data-light-theme=\"light\" data-…
     3 "position: fixed;"                                                           
     4 "display: block;"                                                            
     5 "top: 0;"                                                                    
     6 "left: 0;"                                                                   
     7 "height: 3px;"                                                               
     8 "background: #0076ff;"                                                       
     9 "z-index: 2147483647;"                                                       
    10 "transition:"                                                                
    # ℹ 2,835 more rows
…
